{
      "teams":[
         {
            "cardHolderId":"ee215c28-abcb-145c-8ca8-02ab450d4610",
            "teamName":"Engineering"
         },
         {
            "cardHolderId":"6789b4fa-4f36-4a89-87e7-9a16613c71f",
            "teamName":"Marketing"
         },
         {
            "cardHolderId":"1278dc32-83da-4593-b2de-0769d06216d",
            "teamName":"Operations"
         },
         {
            "cardHolderId":"cc563200-674a-81ed-bcf1-0a58a9fedc02",
            "teamName":"Sales"
         },
         {
            "cardHolderId":"89ddbd2c-ee2a-11bc-9a31-0671a9fa1c02",
            "teamName":"Infra Team"
         },
         {
            "cardHolderId":"4560ed98-377a-469f-a7ec-9321e582af63",
            "teamName":"All Managers"
         },
         {
            "cardHolderId":"df100baa-c7a4-4a1b-972c-436910f28bdf",
            "teamName":"Accounting & Finance"
         },
         {
            "cardHolderId":"90191e8e-914a-11bd-bbb1-0a5824feac02",
            "teamName":"Human Resources"
         }
      ]
}
